%YAML 1.1
%TAG !u! tag:unity3d.com,2011:
--- !u!114 &11400000
MonoBehaviour:
  m_ObjectHideFlags: 0
  m_CorrespondingSourceObject: {fileID: 0}
  m_PrefabInstance: {fileID: 0}
  m_PrefabAsset: {fileID: 0}
  m_GameObject: {fileID: 0}
  m_Enabled: 1
  m_EditorHideFlags: 0
  m_Script: {fileID: 11500000, guid: 78aeba5ab357b78408de901ef7eb5837, type: 3}
  m_Name: 2
  m_EditorClassIdentifier: 
  trescZadania: 'Oblicz: 4 + 9 = '
  PrawidlowaOdpowiedz: 13
  zlaOdpowiedz1: 14
  zlaOdpowiedz2: 55
